<?xml version="1.0" encoding="UTF-8" standalone="no"?>
<!-- Created with Inkscape (http://www.inkscape.org/) -->

<svg
   width="50mm"
   height="50mm"
   viewBox="0 0 50 50"
   version="1.1"
   id="svg5"
   inkscape:version="1.2.1 (9c6d41e410, 2022-07-14, custom)"
   sodipodi:docname="ball_4.svg"
   xmlns:inkscape="http://www.inkscape.org/namespaces/inkscape"
   xmlns:sodipodi="http://sodipodi.sourceforge.net/DTD/sodipodi-0.dtd"
   xmlns="http://www.w3.org/2000/svg"
   xmlns:svg="http://www.w3.org/2000/svg">
  <sodipodi:namedview
     id="namedview7"
     pagecolor="#ffffff"
     bordercolor="#666666"
     borderopacity="1.0"
     inkscape:showpageshadow="2"
     inkscape:pageopacity="0.0"
     inkscape:pagecheckerboard="0"
     inkscape:deskcolor="#d1d1d1"
     inkscape:document-units="mm"
     showgrid="false"
     inkscape:zoom="5.0499057"
     inkscape:cx="136.33918"
     inkscape:cy="137.42831"
     inkscape:window-width="3310"
     inkscape:window-height="2050"
     inkscape:window-x="3380"
     inkscape:window-y="20"
     inkscape:window-maximized="1"
     inkscape:current-layer="layer1" />
  <defs
     id="defs2" />
  <g
     inkscape:label="Layer 1"
     inkscape:groupmode="layer"
     id="layer1">
    <circle
       style="fill:#491f6a;fill-opacity:1;stroke:none;stroke-width:0.5;stroke-opacity:0.99326879;stroke-dasharray:none"
       id="path1026"
       cx="25"
       cy="25"
       r="25" />
    <ellipse
       style="fill:#fffafa;fill-opacity:1;stroke:none;stroke-width:0.5;stroke-opacity:0.993269;stroke-dasharray:none"
       id="path3258"
       cx="25"
       cy="25"
       rx="8.7456751"
       ry="8.6983967" />
    <g
       aria-label="4"
       id="text7256"
       style="font-size:14.1111px;line-height:1.25;stroke-width:0.264583">
      <path
         d="m 27.824329,26.714522 q 0.324555,0 0.52211,0.155223 0.197556,0.155222 0.197556,0.493888 0,0.268111 -0.211667,0.465666 -0.211666,0.183445 -0.507999,0.183445 h -0.846666 v 1.777998 q 0,0.296333 -0.211667,0.508 -0.197555,0.211666 -0.493888,0.211666 -0.282222,0 -0.479778,-0.211666 -0.197555,-0.211667 -0.197555,-0.508 v -1.777998 h -4.698997 q -0.324555,0 -0.52211,-0.211667 -0.197556,-0.211666 -0.197556,-0.493888 0,-0.239889 0.141111,-0.423333 l 5.404552,-7.083773 q 0.239888,-0.310444 0.592666,-0.310444 0.296333,0 0.479777,0.211667 0.183445,0.211666 0.183445,0.52211 v 6.491106 z m -5.785551,0 h 3.555997 v -4.670774 z"
         style="font-weight:bold;font-family:Comfortaa;-inkscape-font-specification:'Comfortaa Bold'"
         id="path291" />
    </g>
  </g>
</svg>
