<?xml version="1.0" encoding="UTF-8" standalone="no"?>
<!-- Created with Inkscape (http://www.inkscape.org/) -->

<svg
   width="50mm"
   height="50mm"
   viewBox="0 0 50 50"
   version="1.1"
   id="svg5"
   inkscape:version="1.2.1 (9c6d41e410, 2022-07-14, custom)"
   sodipodi:docname="ball_3.svg"
   xmlns:inkscape="http://www.inkscape.org/namespaces/inkscape"
   xmlns:sodipodi="http://sodipodi.sourceforge.net/DTD/sodipodi-0.dtd"
   xmlns="http://www.w3.org/2000/svg"
   xmlns:svg="http://www.w3.org/2000/svg">
  <sodipodi:namedview
     id="namedview7"
     pagecolor="#ffffff"
     bordercolor="#666666"
     borderopacity="1.0"
     inkscape:showpageshadow="2"
     inkscape:pageopacity="0.0"
     inkscape:pagecheckerboard="0"
     inkscape:deskcolor="#d1d1d1"
     inkscape:document-units="mm"
     showgrid="false"
     inkscape:zoom="5.0499057"
     inkscape:cx="136.33918"
     inkscape:cy="137.42831"
     inkscape:window-width="3310"
     inkscape:window-height="2050"
     inkscape:window-x="3380"
     inkscape:window-y="20"
     inkscape:window-maximized="1"
     inkscape:current-layer="layer1" />
  <defs
     id="defs2" />
  <g
     inkscape:label="Layer 1"
     inkscape:groupmode="layer"
     id="layer1">
    <circle
       style="fill:#d20000;fill-opacity:1;stroke:none;stroke-width:0.5;stroke-opacity:0.99326879;stroke-dasharray:none"
       id="path1026"
       cx="25"
       cy="25"
       r="25" />
    <ellipse
       style="fill:#fffafa;fill-opacity:1;stroke:none;stroke-width:0.5;stroke-opacity:0.993269;stroke-dasharray:none"
       id="path3258"
       cx="25"
       cy="25"
       rx="8.7456751"
       ry="8.6983967" />
    <g
       aria-label="3"
       id="text7256"
       style="font-size:14.1111px;line-height:1.25;stroke-width:0.264583">
      <path
         d="m 24.834775,30.517466 q -1.044221,0 -1.876776,-0.437445 -0.818444,-0.451555 -1.28411,-1.213554 -0.465667,-0.776111 -0.465667,-1.735665 0,-0.310445 0.183445,-0.522111 0.183444,-0.211667 0.465666,-0.211667 0.282222,0 0.465666,0.211667 0.183444,0.211666 0.183444,0.522111 0,0.578555 0.296334,1.072443 0.296333,0.479778 0.804332,0.776111 0.522111,0.282222 1.142999,0.282222 0.945444,0 1.509888,-0.522111 0.564444,-0.522111 0.564444,-1.439332 0,-0.578555 -0.254,-1.058333 -0.253999,-0.493888 -0.705555,-0.761999 -0.437444,-0.282222 -0.973666,-0.282222 -0.310444,0 -0.52211,-0.211667 -0.197556,-0.211666 -0.197556,-0.52211 0,-0.310445 0.197556,-0.508 0.211666,-0.211667 0.52211,-0.211667 0.395111,0 0.762,-0.197555 0.381,-0.211666 0.606777,-0.564444 0.239889,-0.352777 0.239889,-0.77611 0,-0.620889 -0.451555,-1.044222 -0.451556,-0.423333 -1.157111,-0.423333 -0.536221,0 -0.987777,0.211667 -0.437444,0.211666 -0.705555,0.564444 -0.253999,0.352777 -0.253999,0.790221 0,0.324556 -0.183445,0.550333 -0.183444,0.211667 -0.465666,0.211667 -0.282222,0 -0.465666,-0.197556 -0.183445,-0.211666 -0.183445,-0.52211 0,-0.804333 0.423333,-1.453444 0.423333,-0.663221 1.157111,-1.03011 0.733777,-0.381 1.636887,-0.381 0.818444,0 1.495777,0.366889 0.677333,0.352777 1.058332,0.973666 0.395111,0.620888 0.395111,1.382888 0,0.761999 -0.479777,1.326443 -0.479778,0.550333 -1.199444,0.874888 1.072444,0.366889 1.594555,1.128888 0.52211,0.747889 0.52211,1.777999 0,0.90311 -0.465666,1.636887 -0.465666,0.733778 -1.255888,1.157111 -0.77611,0.409222 -1.693332,0.409222 z"
         style="font-weight:bold;font-family:Comfortaa;-inkscape-font-specification:'Comfortaa Bold'"
         id="path416" />
    </g>
  </g>
</svg>
