<?xml version="1.0" encoding="UTF-8" standalone="no"?>
<!-- Created with Inkscape (http://www.inkscape.org/) -->

<svg
   width="50.400002mm"
   height="50.400002mm"
   viewBox="0 0 50.400002 50.400002"
   version="1.1"
   id="svg5"
   inkscape:version="1.2.1 (9c6d41e410, 2022-07-14, custom)"
   sodipodi:docname="ball_12.svg"
   xmlns:inkscape="http://www.inkscape.org/namespaces/inkscape"
   xmlns:sodipodi="http://sodipodi.sourceforge.net/DTD/sodipodi-0.dtd"
   xmlns="http://www.w3.org/2000/svg"
   xmlns:svg="http://www.w3.org/2000/svg">
  <sodipodi:namedview
     id="namedview7"
     pagecolor="#ffffff"
     bordercolor="#666666"
     borderopacity="1.0"
     inkscape:showpageshadow="2"
     inkscape:pageopacity="0.0"
     inkscape:pagecheckerboard="0"
     inkscape:deskcolor="#d1d1d1"
     inkscape:document-units="mm"
     showgrid="false"
     inkscape:zoom="9.4428165"
     inkscape:cx="164.09299"
     inkscape:cy="114.37266"
     inkscape:window-width="3310"
     inkscape:window-height="2050"
     inkscape:window-x="3380"
     inkscape:window-y="20"
     inkscape:window-maximized="1"
     inkscape:current-layer="layer1" />
  <defs
     id="defs2" />
  <g
     inkscape:label="Layer 1"
     inkscape:groupmode="layer"
     id="layer1">
    <circle
       style="fill:#491f6a;fill-opacity:1;stroke:none;stroke-width:0.5;stroke-dasharray:none;stroke-opacity:0.993269"
       id="path1026"
       cx="25.170656"
       cy="25.206648"
       r="25" />
    <path
       id="path1026-0"
       style="fill:#ffffff;fill-opacity:1;stroke:none;stroke-width:0.5;stroke-dasharray:none;stroke-opacity:0.993269"
       d="M 25.17068,0.20664788 A 25,25 0 0 0 5.6741961,9.562666 H 44.669232 A 25,25 0 0 0 25.17068,0.20664788 Z" />
    <ellipse
       style="fill:#fffafa;fill-opacity:1;stroke:none;stroke-width:0.5;stroke-dasharray:none;stroke-opacity:0.993269"
       id="path3258"
       cx="25"
       cy="25"
       rx="8.7456751"
       ry="8.6983967" />
    <g
       aria-label="12"
       id="text7256"
       style="font-size:14.1111px;line-height:1.25;stroke-width:0.264583">
      <path
         d="m 21.755773,30.717033 q -0.282222,0 -0.493889,-0.211666 -0.211666,-0.211667 -0.211666,-0.508 v -8.607771 l -1.030111,0.437444 q -0.239888,0.09878 -0.451555,0.09878 -0.310444,0 -0.52211,-0.197555 -0.197556,-0.197556 -0.197556,-0.508 0,-0.239889 0.112889,-0.409222 0.112889,-0.183444 0.352777,-0.268111 l 2.201332,-0.790221 q 0.169333,-0.05645 0.268111,-0.05645 0.310444,0 0.508,0.211667 0.197555,0.197555 0.197555,0.52211 v 9.567326 q 0,0.296333 -0.211667,0.508 -0.211666,0.211666 -0.52211,0.211666 z"
         style="font-weight:bold;font-family:Comfortaa;-inkscape-font-specification:'Comfortaa Bold'"
         id="path1072" />
      <path
         d="m 25.537543,30.717033 q -0.310444,0 -0.522111,-0.211666 -0.197555,-0.211667 -0.197555,-0.508 0,-0.310444 0.197555,-0.507999 l 4.007553,-4.684886 q 0.888999,-1.015999 0.888999,-1.763887 0,-0.917222 -0.479777,-1.467555 -0.465667,-0.550332 -1.284111,-0.550332 -0.52211,0 -0.959554,0.282222 -0.437444,0.26811 -0.691444,0.733777 -0.239889,0.465666 -0.239889,1.001888 0,0.282222 -0.211667,0.493888 -0.197555,0.211667 -0.507999,0.211667 -0.296333,0 -0.508,-0.211667 -0.211666,-0.211666 -0.211666,-0.493888 0,-0.945444 0.437444,-1.707443 0.437444,-0.762 1.185332,-1.199444 0.762,-0.437444 1.707443,-0.437444 0.945444,0 1.650999,0.409222 0.719666,0.409222 1.100666,1.171221 0.395111,0.747889 0.395111,1.763888 0,0.620888 -0.366889,1.298221 -0.352777,0.663222 -0.888999,1.269999 l -3.231442,3.668886 h 3.951108 q 0.310444,0 0.522111,0.211667 0.211666,0.211666 0.211666,0.507999 0,0.296333 -0.211666,0.508 -0.211667,0.211666 -0.522111,0.211666 z"
         style="font-weight:bold;font-family:Comfortaa;-inkscape-font-specification:'Comfortaa Bold'"
         id="path1074" />
    </g>
    <path
       id="path1026-6"
       style="fill:#ffffff;fill-opacity:1;stroke:none;stroke-width:0.5;stroke-dasharray:none;stroke-opacity:0.993269"
       d="M 5.6741961,40.850679 A 25,25 0 0 0 25.17068,50.206697 25,25 0 0 0 44.667165,40.850679 Z" />
  </g>
  <circle
     style="fill:none;fill-opacity:1;stroke:#000000;stroke-width:0.3;stroke-dasharray:none;stroke-opacity:1"
     id="path1026-3"
     cx="25.170656"
     cy="25.206648"
     r="25" />
</svg>
